64 -16 -32 856
992
-40 136 -80 -24 680
-16 40 -16 72 -96 -32 672
-16 24 -40 8 -24 840
-40 112 -16 800
-80 152 -160 576
-40 -24 -40 -48 -56 232 -16 480
-24 80 -16 -56 784
-8 -8 8 -16 -32 -40 832
104 -48 -120 696
80 -48 848
